"N","min(T)","q1(T)","med(T)","q3(T)","max(T)","avg(T)","std(T)","min(D (0))","q1(D (0))","med(D (0))","q3(D (0))","max(D (0))","avg(D (0))","std(D (0))","min(D (1))","q1(D (1))","med(D (1))","q3(D (1))","max(D (1))","avg(D (1))","std(D (1))","min(D (2))","q1(D (2))","med(D (2))","q3(D (2))","max(D (2))","avg(D (2))","std(D (2))","min(D (Magnitude))","q1(D (Magnitude))","med(D (Magnitude))","q3(D (Magnitude))","max(D (Magnitude))","avg(D (Magnitude))","std(D (Magnitude))","min(vtkOriginalCellIds)","q1(vtkOriginalCellIds)","med(vtkOriginalCellIds)","q3(vtkOriginalCellIds)","max(vtkOriginalCellIds)","avg(vtkOriginalCellIds)","std(vtkOriginalCellIds)","vtkValidPointMask","Time"
1,673.15,673.15,673.15,673.15,673.15,673.15,0,0,0,0,0,0,0,0,0,0,0,0,0,0,0,0,0,0,0,0,0,0,0,0,0,0,0,0,0,0,0,0,0,0,0,0,1,0
1,773.15,773.15,773.15,773.15,773.15,773.15,0,1.4037e-06,1.4037e-06,1.4037e-06,1.4037e-06,1.4037e-06,1.4037e-06,0,2.2958e-06,2.2958e-06,2.2958e-06,2.2958e-06,2.2958e-06,2.2958e-06,0,-0.0244327,-0.0244327,-0.0244327,-0.0244327,-0.0244327,-0.0244327,0,0.0244327,0.0244327,0.0244327,0.0244327,0.0244327,0.0244327,0,0,0,0,0,0,0.00280147,0,1,5
1,873.15,873.15,873.15,873.15,873.15,873.15,0,1.72255e-06,1.72255e-06,1.72255e-06,1.72255e-06,1.72255e-06,1.72255e-06,0,2.81621e-06,2.81621e-06,2.81621e-06,2.81621e-06,2.81621e-06,2.81621e-06,0,-0.0498047,-0.0498047,-0.0498047,-0.0498047,-0.0498047,-0.0498047,0,0.0498047,0.0498047,0.0498047,0.0498047,0.0498047,0.0498047,0,0,0,0,0,0,0.00344372,0,1,10
1,973.15,973.15,973.15,973.15,973.15,973.15,0,2.05281e-06,2.05281e-06,2.05281e-06,2.05281e-06,2.05281e-06,2.05281e-06,0,3.35612e-06,3.35612e-06,3.35612e-06,3.35612e-06,3.35612e-06,3.35612e-06,0,-0.0751767,-0.0751767,-0.0751767,-0.0751767,-0.0751767,-0.0751767,0,0.0751767,0.0751767,0.0751767,0.0751767,0.0751767,0.0751767,0,0,16325973857468416,94699733909504,0,0,0.00410422,0,1,15
1,1073.15,1073.15,1073.15,1073.15,1073.15,1073.15,0,2.3922e-06,2.3922e-06,2.3922e-06,2.3922e-06,2.3922e-06,2.3922e-06,0,3.91096e-06,3.91096e-06,3.91096e-06,3.91096e-06,3.91096e-06,3.91096e-06,0,-0.100549,-0.100549,-0.100549,-0.100549,-0.100549,-0.100549,0,0.100549,0.100549,0.100549,0.100549,0.100549,0.100549,0,1480927,1484429,1484433,1484408,1480949,0.00478296,0,1,20
1,1173.15,1173.15,1173.15,1173.15,1173.15,1173.15,0,2.74072e-06,2.74072e-06,2.74072e-06,2.74072e-06,2.74072e-06,2.74072e-06,0,4.48071e-06,4.48071e-06,4.48071e-06,4.48071e-06,4.48071e-06,4.48071e-06,0,-0.125921,-0.125921,-0.125921,-0.125921,-0.125921,-0.125921,0,0.125921,0.125921,0.125921,0.125921,0.125921,0.125921,0,0,0,0,0,0,0.00547996,0,1,25
1,1273.15,1273.15,1273.15,1273.15,1273.15,1273.15,0,3.09836e-06,3.09836e-06,3.09836e-06,3.09836e-06,3.09836e-06,3.09836e-06,0,5.06538e-06,5.06538e-06,5.06538e-06,5.06538e-06,5.06538e-06,5.06538e-06,0,-0.151293,-0.151293,-0.151293,-0.151293,-0.151293,-0.151293,0,0.151293,0.151293,0.151293,0.151293,0.151293,0.151293,0,0,0,0,0,94702589222896,0.0061952,0,1,30
1,1373.15,1373.15,1373.15,1373.15,1373.15,1373.15,0,3.46513e-06,3.46513e-06,3.46513e-06,3.46513e-06,3.46513e-06,3.46513e-06,0,5.66496e-06,5.66496e-06,5.66496e-06,5.66496e-06,5.66496e-06,5.66496e-06,0,-0.176665,-0.176665,-0.176665,-0.176665,-0.176665,-0.176665,0,0.176665,0.176665,0.176665,0.176665,0.176665,0.176665,0,0,0,0,0,0,0.0069287,0,1,35
1,1473.15,1473.15,1473.15,1473.15,1473.15,1473.15,0,3.84102e-06,3.84102e-06,3.84102e-06,3.84102e-06,3.84102e-06,3.84102e-06,0,6.27946e-06,6.27946e-06,6.27946e-06,6.27946e-06,6.27946e-06,6.27946e-06,0,-0.202037,-0.202037,-0.202037,-0.202037,-0.202037,-0.202037,0,0.202037,0.202037,0.202037,0.202037,0.202037,0.202037,0,140217708659808,0,0,0,0,0.00768044,0,1,40
1,1573.15,1573.15,1573.15,1573.15,1573.15,1573.15,0,4.22603e-06,4.22603e-06,4.22603e-06,4.22603e-06,4.22603e-06,4.22603e-06,0,6.90888e-06,6.90888e-06,6.90888e-06,6.90888e-06,6.90888e-06,6.90888e-06,0,-0.227409,-0.227409,-0.227409,-0.227409,-0.227409,-0.227409,0,0.227409,0.227409,0.227409,0.227409,0.227409,0.227409,0,0,4294967296,4294967296,4294967296,0,0.00845043,0,1,45
1,1673.15,1673.15,1673.15,1673.15,1673.15,1673.15,0,4.62017e-06,4.62017e-06,4.62017e-06,4.62017e-06,4.62017e-06,4.62017e-06,0,7.55321e-06,7.55321e-06,7.55321e-06,7.55321e-06,7.55321e-06,7.55321e-06,0,-0.252781,-0.252781,-0.252781,-0.252781,-0.252781,-0.252781,0,0.252781,0.252781,0.252781,0.252781,0.252781,0.252781,0,96,9007388233302016,0,0,96,0.00923867,0,1,50
