E,,T,fastFluence,rho,vtkValidPointMask,arc_length,Points:0,Points:1,Points:2
51503700000,51.5037,673.15,5E+025,1900,1,0,0,0.00000005,0.00000005
51540180000,51.54018,683.15,5E+025,1900,1,0.00000005,0.00000005,0.00000005,0.00000005
51576650000,51.57665,693.15,5E+025,1900,1,0.00000009999999,0.00000009999999,0.00000005,0.00000005
51649630000,51.64963,703.15,5E+025,1900,1,0.00000015,0.00000015,0.00000005,0.00000005
51722600000,51.7226,713.15,5E+025,1900,1,0.0000002,0.0000002,0.00000005,0.00000005
51795600000,51.7956,723.15,5E+025,1900,1,0.00000025,0.00000025,0.00000005,0.00000005
51868600000,51.8686,733.15,5E+025,1900,1,0.0000003,0.0000003,0.00000005,0.00000005
51941570000,51.94157,743.15,5E+025,1900,1,0.00000035,0.00000035,0.00000005,0.00000005
52014550000,52.01455,753.15,5E+025,1900,1,0.0000004,0.0000004,0.00000005,0.00000005
52087530000,52.08753,763.15,5E+025,1900,1,0.00000045,0.00000045,0.00000005,0.00000005
52160500000,52.1605,773.15,5E+025,1900,1,0.0000005,0.0000005,0.00000005,0.00000005
52233500000,52.2335,783.15,5E+025,1900,1,0.00000055,0.00000055,0.00000005,0.00000005
52306500000,52.3065,793.15,5E+025,1900,1,0.0000006,0.0000006,0.00000005,0.00000005
52379500000,52.3795,803.15,5E+025,1900,1,0.00000065,0.00000065,0.00000005,0.00000005
52452500000,52.4525,813.15,5E+025,1900,1,0.0000007,0.0000007,0.00000005,0.00000005
52525470000,52.52547,823.15,5E+025,1900,1,0.00000075,0.00000075,0.00000005,0.00000005
52598450000,52.59845,833.15,5E+025,1900,1,0.0000008,0.0000008,0.00000005,0.00000005
52671420000,52.67142,843.15,5E+025,1900,1,0.00000085,0.00000085,0.00000005,0.00000005
52744400000,52.7444,853.15,5E+025,1900,1,0.0000009,0.0000009,0.00000005,0.00000005
52817400000,52.8174,863.15,5E+025,1900,1,0.00000095,0.00000095,0.00000005,0.00000005
52890400000,52.8904,873.15,5E+025,1900,1,0.000001,0.000001,0.00000005,0.00000005
52963370000,52.96337,883.15,5E+025,1900,1,0.00000105,0.00000105,0.00000005,0.00000005
53036350000,53.03635,893.15,5E+025,1900,1,0.0000011,0.0000011,0.00000005,0.00000005
53109330000,53.10933,903.15,5E+025,1900,1,0.00000115,0.00000115,0.00000005,0.00000005
53182300000,53.1823,913.15,5E+025,1900,1,0.0000012,0.0000012,0.00000005,0.00000005
53255300000,53.2553,923.15,5E+025,1900,1,0.00000125,0.00000125,0.00000005,0.00000005
53328300000,53.3283,933.15,5E+025,1900,1,0.0000013,0.0000013,0.00000005,0.00000005
53401300000,53.4013,943.15,5E+025,1900,1,0.00000135,0.00000135,0.00000005,0.00000005
53474300000,53.4743,953.15,5E+025,1900,1,0.0000014,0.0000014,0.00000005,0.00000005
53547270000,53.54727,963.15,5E+025,1900,1,0.00000145,0.00000145,0.00000005,0.00000005
53620250000,53.62025,973.15,5E+025,1900,1,0.0000015,0.0000015,0.00000005,0.00000005
53693220000,53.69322,983.15,5E+025,1900,1,0.00000155,0.00000155,0.00000005,0.00000005
53766200000,53.7662,993.15,5E+025,1900,1,0.0000016,0.0000016,0.00000005,0.00000005
53839200000,53.8392,1003.15,5E+025,1900,1,0.00000165,0.00000165,0.00000005,0.00000005
53912200000,53.9122,1013.15,5E+025,1900,1,0.0000017,0.0000017,0.00000005,0.00000005
53985170000,53.98517,1023.15,5E+025,1900,1,0.00000175,0.00000175,0.00000005,0.00000005
54058150000,54.05815,1033.15,5E+025,1900,1,0.0000018,0.0000018,0.00000005,0.00000005
54131130000,54.13113,1043.15,5E+025,1900,1,0.00000185,0.00000185,0.00000005,0.00000005
54204100000,54.2041,1053.15,5E+025,1900,1,0.0000019,0.0000019,0.00000005,0.00000005
54277100000,54.2771,1063.15,5E+025,1900,1,0.00000195,0.00000195,0.00000005,0.00000005
54350100000,54.3501,1073.15,5E+025,1900,1,0.000002,0.000002,0.00000005,0.00000005
54423100000,54.4231,1083.15,5E+025,1900,1,0.00000205,0.00000205,0.00000005,0.00000005
54496100000,54.4961,1093.15,5E+025,1900,1,0.0000021,0.0000021,0.00000005,0.00000005
54569070000,54.56907,1103.15,5E+025,1900,1,0.00000215,0.00000215,0.00000005,0.00000005
54642050000,54.64205,1113.15,5E+025,1900,1,0.0000022,0.0000022,0.00000005,0.00000005
54715020000,54.71502,1123.15,5E+025,1900,1,0.00000225,0.00000225,0.00000005,0.00000005
54788000000,54.788,1133.15,5E+025,1900,1,0.0000023,0.0000023,0.00000005,0.00000005
54861000000,54.861,1143.15,5E+025,1900,1,0.00000235,0.00000235,0.00000005,0.00000005
54934000000,54.934,1153.15,5E+025,1900,1,0.0000024,0.0000024,0.00000005,0.00000005
55006970000,55.00697,1163.15,5E+025,1900,1,0.00000245,0.00000245,0.00000005,0.00000005
55079950000,55.07995,1173.15,5E+025,1900,1,0.0000025,0.0000025,0.00000005,0.00000005
55152920000,55.15292,1183.15,5E+025,1900,1,0.00000255,0.00000255,0.00000005,0.00000005
55225900000,55.2259,1193.15,5E+025,1900,1,0.0000026,0.0000026,0.00000005,0.00000005
55298900000,55.2989,1203.15,5E+025,1900,1,0.00000265,0.00000265,0.00000005,0.00000005
55371900000,55.3719,1213.15,5E+025,1900,1,0.0000027,0.0000027,0.00000005,0.00000005
55444900000,55.4449,1223.15,5E+025,1900,1,0.00000275,0.00000275,0.00000005,0.00000005
55517900000,55.5179,1233.15,5E+025,1900,1,0.0000028,0.0000028,0.00000005,0.00000005
55590880000,55.59088,1243.15,5E+025,1900,1,0.00000285,0.00000285,0.00000005,0.00000005
55663850000,55.66385,1253.15,5E+025,1900,1,0.0000029,0.0000029,0.00000005,0.00000005
55736820000,55.73682,1263.15,5E+025,1900,1,0.00000295,0.00000295,0.00000005,0.00000005
55809800000,55.8098,1273.15,5E+025,1900,1,0.000003,0.000003,0.00000005,0.00000005
55882800000,55.8828,1283.15,5E+025,1900,1,0.00000305,0.00000305,0.00000005,0.00000005
55955800000,55.9558,1293.15,5E+025,1900,1,0.0000031,0.0000031,0.00000005,0.00000005
56028770000,56.02877,1303.15,5E+025,1900,1,0.00000315,0.00000315,0.00000005,0.00000005
56101750000,56.10175,1313.15,5E+025,1900,1,0.0000032,0.0000032,0.00000005,0.00000005
56174720000,56.17472,1323.15,5E+025,1900,1,0.00000325,0.00000325,0.00000005,0.00000005
56247700000,56.2477,1333.15,5E+025,1900,1,0.0000033,0.0000033,0.00000005,0.00000005
56320700000,56.3207,1343.15,5E+025,1900,1,0.00000335,0.00000335,0.00000005,0.00000005
56393700000,56.3937,1353.15,5E+025,1900,1,0.0000034,0.0000034,0.00000005,0.00000005
56466700000,56.4667,1363.15,5E+025,1900,1,0.00000345,0.00000345,0.00000005,0.00000005
56539700000,56.5397,1373.15,5E+025,1900,1,0.0000035,0.0000035,0.00000005,0.00000005
56612680000,56.61268,1383.15,5E+025,1900,1,0.00000355,0.00000355,0.00000005,0.00000005
56685650000,56.68565,1393.15,5E+025,1900,1,0.0000036,0.0000036,0.00000005,0.00000005
56758620000,56.75862,1403.15,5E+025,1900,1,0.00000365,0.00000365,0.00000005,0.00000005
56831600000,56.8316,1413.15,5E+025,1900,1,0.0000037,0.0000037,0.00000005,0.00000005
56904600000,56.9046,1423.15,5E+025,1900,1,0.00000375,0.00000375,0.00000005,0.00000005
56977600000,56.9776,1433.15,5E+025,1900,1,0.0000038,0.0000038,0.00000005,0.00000005
57050570000,57.05057,1443.15,5E+025,1900,1,0.00000385,0.00000385,0.00000005,0.00000005
57123550000,57.12355,1453.15,5E+025,1900,1,0.0000039,0.0000039,0.00000005,0.00000005
57196530000,57.19653,1463.15,5E+025,1900,1,0.00000395,0.00000395,0.00000005,0.00000005
57269500000,57.2695,1473.15,5E+025,1900,1,0.000004,0.000004,0.00000005,0.00000005
57342500000,57.3425,1483.15,5E+025,1900,1,0.00000405,0.00000405,0.00000005,0.00000005
57415500000,57.4155,1493.15,5E+025,1900,1,0.0000041,0.0000041,0.00000005,0.00000005
57488500000,57.4885,1503.15,5E+025,1900,1,0.00000415,0.00000415,0.00000005,0.00000005
57561500000,57.5615,1513.15,5E+025,1900,1,0.0000042,0.0000042,0.00000005,0.00000005
57634480000,57.63448,1523.15,5E+025,1900,1,0.00000425,0.00000425,0.00000005,0.00000005
57707450000,57.70745,1533.15,5E+025,1900,1,0.0000043,0.0000043,0.00000005,0.00000005
57780420000,57.78042,1543.15,5E+025,1900,1,0.00000435,0.00000435,0.00000005,0.00000005
57853400000,57.8534,1553.15,5E+025,1900,1,0.0000044,0.0000044,0.00000005,0.00000005
57926400000,57.9264,1563.15,5E+025,1900,1,0.00000445,0.00000445,0.00000005,0.00000005
57999400000,57.9994,1573.15,5E+025,1900,1,0.0000045,0.0000045,0.00000005,0.00000005
58072380000,58.07238,1583.15,5E+025,1900,1,0.00000455,0.00000455,0.00000005,0.00000005
58145350000,58.14535,1593.15,5E+025,1900,1,0.0000046,0.0000046,0.00000005,0.00000005
58218320000,58.21832,1603.15,5E+025,1900,1,0.00000465,0.00000465,0.00000005,0.00000005
58291300000,58.2913,1613.15,5E+025,1900,1,0.0000047,0.0000047,0.00000005,0.00000005
58364300000,58.3643,1623.15,5E+025,1900,1,0.00000475,0.00000475,0.00000005,0.00000005
58437300000,58.4373,1633.15,5E+025,1900,1,0.0000048,0.0000048,0.00000005,0.00000005
58510300000,58.5103,1643.15,5E+025,1900,1,0.00000485,0.00000485,0.00000005,0.00000005
58583300000,58.5833,1653.15,5E+025,1900,1,0.0000049,0.0000049,0.00000005,0.00000005
58619800000,58.6198,1663.15,5E+025,1900,1,0.00000495,0.00000495,0.00000005,0.00000005
58656300000,58.6563,1673.15,5E+025,1900,1,0.000005,0.000005,0.00000005,0.00000005
