<?xml version="1.0" encoding="UTF-8" standalone="no"?>
<!-- Created with Inkscape (http://www.inkscape.org/) -->

<svg
   xmlns:dc="http://purl.org/dc/elements/1.1/"
   xmlns:cc="http://creativecommons.org/ns#"
   xmlns:rdf="http://www.w3.org/1999/02/22-rdf-syntax-ns#"
   xmlns:svg="http://www.w3.org/2000/svg"
   xmlns="http://www.w3.org/2000/svg"
   xmlns:sodipodi="http://sodipodi.sourceforge.net/DTD/sodipodi-0.dtd"
   xmlns:inkscape="http://www.inkscape.org/namespaces/inkscape"
   width="100.42545"
   height="67.665085"
   viewBox="0 0 26.570897 17.903055"
   version="1.1"
   id="svg8"
   inkscape:version="0.92.5 (2060ec1f9f, 2020-04-08)"
   sodipodi:docname="logo.svg">
  <defs
     id="defs2">
    <style
       id="style3864">.cls-1{fill:red;}</style>
  </defs>
  <sodipodi:namedview
     id="base"
     pagecolor="#ffffff"
     bordercolor="#666666"
     borderopacity="1.0"
     inkscape:pageopacity="0.0"
     inkscape:pageshadow="2"
     inkscape:zoom="1.4"
     inkscape:cx="281.50748"
     inkscape:cy="-144.38119"
     inkscape:document-units="mm"
     inkscape:current-layer="layer1"
     showgrid="false"
     fit-margin-top="0"
     fit-margin-left="0"
     fit-margin-bottom="0"
     fit-margin-right="0"
     inkscape:window-width="1920"
     inkscape:window-height="1051"
     inkscape:window-x="1920"
     inkscape:window-y="118"
     inkscape:window-maximized="1"
     units="px" />
  <metadata
     id="metadata5">
    <rdf:RDF>
      <cc:Work
         rdf:about="">
        <dc:format>image/svg+xml</dc:format>
        <dc:type
           rdf:resource="http://purl.org/dc/dcmitype/StillImage" />
        <dc:title></dc:title>
      </cc:Work>
    </rdf:RDF>
  </metadata>
  <g
     inkscape:label="Layer 1"
     inkscape:groupmode="layer"
     id="layer1"
     transform="translate(43.882017,-22.319781)">
    <g
       id="g3797"
       transform="matrix(0.06855237,0,0,0.06855237,-44.992565,30.441509)">
      <path
         id="path3773"
         class="style0"
         d="M 101.6,73.1 H 34.8 C 24.5,73.1 16.2,80.2 16.2,89 v 16.7 c 0,8.8 8.3,15.9 18.6,15.9 h 66.8 M 319.4,73.1 h 65.8 c 10.3,0 18.6,7.1 18.6,15.9 v 16.7 c 0,8.8 -8.3,15.9 -18.6,15.9 h -65.9 m -131.5,-0.1 2.5,-14.5 -56.9,-0.1 0.2,14.7 z"
         inkscape:connector-curvature="0"
         style="fill:#bdbaba;fill-rule:nonzero" />
      <path
         id="path3775"
         class="style1"
         d="m 188.4,99.9 c 0,4.8 -3.9,8.7 -8.6,8.7 h -46.3 v 22.9 c 0,4.8 -3.9,8.7 -8.7,8.7 h -13.4 c -4.8,0 -8.7,-3.9 -8.7,-8.7 V 54.7 c 0,-4.8 3.9,-8.7 8.7,-8.7 h 68.4 c 4.7,0 8.6,3.9 8.6,8.7 z m 86.2,-45.2 c 0,-4.8 3.9,-8.7 8.7,-8.7 h 27 c 4.8,0 8.7,3.9 8.7,8.7 v 76.8 c 0,4.8 -3.9,8.7 -8.7,8.7 h -27 c -4.8,0 -8.7,-3.9 -8.7,-8.7 z"
         inkscape:connector-curvature="0"
         style="fill:#ffffff;fill-rule:nonzero;stroke:#000000;stroke-width:4.96799994" />
      <path
         id="path3777"
         class="style1"
         d="m 265.9,77.4 c 4.8,0 8.7,3.9 8.7,8.7 v 45.4 c 0,4.8 -3.9,8.7 -8.7,8.7 h -68.8 c -4.8,0 -8.7,-3.9 -8.7,-8.7 v -14.2 c 0,-4.8 3.9,-8.7 8.7,-8.7 h 50.7 -50.7 c -4.8,0 -8.7,-3.9 -8.7,-8.7 V 54.7 c 0,-4.8 3.9,-8.7 8.7,-8.7 h 68.8 c 4.8,0 8.7,3.9 8.7,8.7 v 14.1 c 0,4.8 -3.9,8.6 -8.7,8.6 h -50.2 z"
         inkscape:connector-curvature="0"
         style="fill:#ffffff;fill-rule:nonzero;stroke:#000000;stroke-width:4.96799994" />
      <path
         id="path3779"
         class="style2"
         d="m 130.7,77.4 h 29.4"
         inkscape:connector-curvature="0"
         style="fill:none;stroke:#000000;stroke-width:4.96799994" />
      <path
         id="path3781"
         class="style3"
         d="M 33.8,29.4 V 19.8 C 38.3,19.9 40,17.9 40,13.4 40,7.9 36.8,7.6 34.3,7.6 h -3.5 v 21.8 z m 0.4,-19.3 c 2.1,0 2.7,1.7 2.7,3.6 0,2.4 -0.7,3.8 -3.1,3.6 V 10.1 Z M 51,7.6 46.2,29.4 h 2.9 l 0.8,-4.2 h 4.3 l 0.9,4.2 h 2.8 L 53.2,7.6 Z m 2.8,15.3 h -3.5 l 1.8,-11.1 1.1,8 z M 66.5,7.6 v 15.1 c 0,3.9 0.5,7.1 5,7.1 5.1,0 5,-3.9 5,-6.7 V 7.6 h -2.9 v 16.3 c 0,1.9 -0.1,3.1 -2.1,3.1 -1.2,0 -2,-0.6 -2,-3.4 v -16 z m 20.2,0 v 21.8 h 7.8 V 26.9 H 89.6 V 7.6 Z m 32.7,0.5 c -0.9,-0.6 -1.9,-0.8 -3.1,-0.8 -3.2,0 -4.8,2.6 -4.8,5.6 0,5.7 6,6.6 6,11 0,1.6 -0.7,3 -2.5,3 -1.1,0 -2,-0.5 -2.8,-1.1 v 2.9 c 0.8,0.7 2,1.1 3.1,1.1 3.2,0 5.2,-2.7 5.2,-5.8 0,-2.9 -1.2,-4.4 -3.2,-6.4 l -2.1,-2.3 c -0.6,-0.8 -0.9,-1.5 -0.9,-2.4 0,-1.5 1,-2.8 2.6,-2.8 1,0 1.8,0.3 2.5,0.9 z M 138,7.9 c -0.8,-0.4 -1.5,-0.6 -2.5,-0.6 -5.9,0 -6.5,7.2 -6.5,11.6 0,4.5 0.8,10.9 6.7,10.9 0.9,0 1.6,-0.2 2.3,-0.7 v -2.5 c -0.5,0.3 -1.1,0.4 -1.7,0.4 -4,0 -4.2,-5.4 -4.2,-8.3 0,-2.8 0,-8.6 4.1,-8.6 0.6,0 1.2,0.2 1.8,0.5 V 7.9 Z m 8.9,-0.3 v 21.8 h 3 V 18.6 h 4.3 v 10.8 h 2.9 V 7.6 h -2.9 v 8.5 h -4.3 V 7.6 Z m 20.4,0 v 21.8 h 7.8 v -2.5 h -4.9 v -7.4 h 4.3 V 17 h -4.3 v -6.9 h 4.9 V 7.6 Z M 184,29.4 h 2.9 V 18.8 l 4,10.6 h 3 l -4,-10.6 c 2.4,-0.4 3,-3.5 3,-5.6 0,-5.4 -3.3,-5.6 -5.4,-5.6 H 184 Z m 2.9,-12.1 v -7.2 h 0.5 c 2.1,-0.1 2.4,1.7 2.4,3.7 0,2.3 -0.8,3.6 -2.9,3.5 z m 15.8,12.1 h 2.9 V 18.8 l 4,10.6 h 3 l -4,-10.6 c 2.4,-0.4 3,-3.5 3,-5.6 0,-5.4 -3.3,-5.6 -5.4,-5.6 h -3.5 z m 2.9,-12.1 v -7.2 h 0.5 c 2.2,-0.1 2.4,1.7 2.4,3.7 0,2.3 -0.7,3.6 -2.9,3.5 z m 15.8,-9.7 v 21.8 h 7.8 v -2.5 h -4.9 v -7.4 h 4.4 V 17 h -4.4 v -6.9 h 4.9 V 7.6 Z m 16.7,21.8 H 241 V 18.8 l 4,10.6 h 3 l -4,-10.6 c 2.4,-0.4 3,-3.5 3,-5.6 0,-5.4 -3.3,-5.6 -5.4,-5.6 h -3.5 z M 241,17.3 v -7.2 h 0.5 c 2.2,-0.1 2.4,1.7 2.4,3.7 0,2.3 -0.7,3.6 -2.9,3.5 z m 29,-9.7 h -2.9 v 21.8 h 2.9 z m 12.5,5.1 0.1,-0.1 5,16.8 h 2.7 V 7.6 h -2.9 v 7.8 l 0.7,8.7 v 0.1 L 283,7.6 h -2.8 v 21.8 h 2.9 v -8 l -0.4,-7.3 z m 24.8,-4.6 c -1,-0.6 -2,-0.8 -3.1,-0.8 -3.2,0 -4.9,2.6 -4.9,5.6 0,5.7 6.1,6.6 6.1,11 0,1.6 -0.8,3 -2.5,3 -1.1,0 -2,-0.5 -2.9,-1.1 v 2.9 c 0.9,0.7 2.1,1.1 3.2,1.1 3.2,0 5.1,-2.7 5.1,-5.8 0,-2.9 -1.1,-4.4 -3.1,-6.4 L 303,15.3 c -0.5,-0.8 -0.8,-1.5 -0.8,-2.4 0,-1.5 1,-2.8 2.6,-2.8 1,0 1.7,0.3 2.5,0.9 z m 8.3,-0.5 v 2.5 h 3.4 v 19.3 h 2.9 V 10.1 h 3.2 V 7.6 Z m 20.8,0 h -3 v 21.8 h 3 z m 8.3,0 v 2.5 h 3.4 V 29.4 H 351 V 10.1 h 3.2 V 7.6 Z m 17.9,0 v 15.1 c 0,3.9 0.4,7.1 5,7.1 5,0 5,-3.9 5,-6.7 V 7.6 h -2.9 v 16.3 c 0,1.9 -0.2,3.1 -2.2,3.1 -1.2,0 -2,-0.6 -2,-3.4 v -16 z m 18.3,0 v 2.5 h 3.4 v 19.3 h 2.9 V 10.1 h 3.2 V 7.6 Z"
         inkscape:connector-curvature="0"
         style="fill:#000000" />
    </g>
    <g
       id="g3900"
       transform="matrix(0.12311491,0,0,0.12311491,-41.823416,22.320749)">
      <polygon
         id="polygon3870"
         points="0,21.6 11.43,21.6 11.43,9.8 38.34,9.8 38.34,0 0,0 "
         class="cls-1"
         style="fill:#ff0000" />
      <polygon
         id="polygon3872"
         points="0,53 38.34,53 38.34,43.2 11.43,43.2 11.43,31.4 0,31.4 "
         class="cls-1"
         style="fill:#ff0000" />
      <rect
         id="rect3874"
         height="9.8000002"
         width="24.610001"
         y="21.6"
         x="11.43"
         class="cls-1"
         style="fill:#ff0000" />
      <path
         id="path3876"
         d="M 86,4.87 A 16.12,16.12 0 0 0 80.32,1.34 23.76,23.76 0 0 0 71.82,0 H 48.14 V 53 H 59.57 V 31.4 h 12.25 a 23.76,23.76 0 0 0 8.46,-1.34 16.12,16.12 0 0 0 5.72,-3.53 13.43,13.43 0 0 0 3.19,-5 17.38,17.38 0 0 0 0,-11.62 A 13.52,13.52 0 0 0 86,4.87 Z m -8,13.86 a 5.7,5.7 0 0 1 -2.26,1.8 11.33,11.33 0 0 1 -3.27,0.85 32,32 0 0 1 -3.86,0.22 H 59.57 V 9.8 h 9.05 a 32,32 0 0 1 3.86,0.22 11,11 0 0 1 3.27,0.86 5.59,5.59 0 0 1 2.25,1.79 5,5 0 0 1 0.86,3 5,5 0 0 1 -0.86,3.06 z"
         class="cls-1"
         inkscape:connector-curvature="0"
         style="fill:#ff0000" />
      <polygon
         id="polygon3878"
         points="155.47,43.2 155.47,0 144.04,0 144.04,53 182.38,53 182.38,43.2 "
         class="cls-1"
         style="fill:#ff0000" />
      <polygon
         id="polygon3880"
         points="97.42,21.6 108.85,21.6 108.85,9.8 135.76,9.8 135.76,0 97.42,0 "
         class="cls-1"
         style="fill:#ff0000" />
      <rect
         id="rect3882"
         height="21.6"
         width="11.43"
         y="31.4"
         x="97.419998"
         class="cls-1"
         style="fill:#ff0000" />
      <rect
         id="rect3884"
         height="9.8000002"
         width="24.610001"
         y="21.6"
         x="108.85"
         class="cls-1"
         style="fill:#ff0000" />
    </g>
  </g>
  <style
     id="style3771">.style0{fill:#bdbaba;fill-rule:nonzero}.style1,.style2{stroke:#000;stroke-width:4.96799994}.style1{fill-rule:nonzero;fill:#fff}.style2{fill:none}.style3{fill:#000}</style>
</svg>
