0.0013788995705964757, 2910.1734799116043
0.00952294623020869, 2910.151369377687
0.017666992889820904, 2910.1292588437695
0.025811039549433118, 2910.107148309852
0.03395508620904533, 2910.0850377759343
0.042099132868657546, 2910.062927242017
0.05024317952826976, 2910.0408167080996
0.058387226187881974, 2910.018706174182
0.06653127284749419, 2909.9965956402643
0.0746753195071064, 2909.974485106347
0.08281936616671859, 2909.9523745724296
0.0909634128263308, 2909.930264038512
0.09910745948594302, 2909.9081535045943
0.10725150614555523, 2909.886042970677
0.11539555280516745, 2909.8639324367596
0.12353959946477966, 2909.8418219028417
0.13168364612439187, 2909.8197113689243
0.13982769278400406, 2909.797600835007
0.14797583398693434, 2906.6210541288597
0.15611988064654655, 2906.5989435949423
0.16426392730615877, 2906.5768330610244
0.17240797396577098, 2906.554722527107
0.1805520206253832, 2906.5326119931897
0.1886960672849954, 2906.510501459272
0.19684147879238031, 2905.436912201278
0.2049882551475379, 2903.311844219207
0.21313230180715012, 2903.28973368529
0.22127634846676233, 2903.2676231513724
0.22942039512637455, 2903.2455126174546
0.23756444178598676, 2903.223402083537
0.24571258298891704, 2900.04685537739
0.253857994496302, 2898.9732661193957
0.26200477085145957, 2896.8481981373247
0.27015018235884447, 2895.774608879331
0.27829832356177464, 2892.5980621731833
0.28644509991693223, 2890.472994191113
0.2945946059676352, 2886.2449687608887
0.3027413823227928, 2884.1199007788177
0.31089225322126834, 2878.8403966245173
0.3190403944241986, 2875.66384991837
0.3271899004749016, 2871.435824488146
0.33534077137337726, 2866.156320333845
0.3434902774240802, 2861.928294903621
0.3516397834747832, 2857.7002694733974
0.35979201922103154, 2851.3692865950197
0.3679442549672798, 2845.0383037166425
0.37609649071352813, 2838.7073208382653
0.3842473616120038, 2833.427816683965
0.39240096220602483, 2826.045355081511
0.4005518331045005, 2820.76585092721
0.408706798546294, 2812.3319106006797
0.41686039914031503, 2804.9494489982258
0.42501536458210876, 2796.515508671695
0.4331689651761298, 2789.133047069241
0.4413252954656961, 2779.647628018634
0.44947889605971714, 2772.2651664161804
0.45763386150151086, 2763.8312260896496
0.4657901917910773, 2754.3458070390425
0.4739465220806436, 2744.8603879884354
0.4821042172179827, 2734.3234902137515
0.49026327720309437, 2722.7351137149913
0.4984196074926608, 2713.2496946643837
0.5065773026299999, 2702.7127968897003
0.5147363626151116, 2691.1244203909396
0.5228954226002234, 2679.5360438921794
0.5310558474331079, 2666.8961886693423
0.5392162722659922, 2654.2563334465053
0.5473766970988767, 2641.6164782236683
0.5555371219317611, 2628.976623000831
0.5636975467646456, 2616.3367677779943
0.5718593364453026, 2602.6454338310805
0.5800197612781871, 2590.005578608243
0.5881870103499349, 2572.108329765023
0.5963488000305921, 2558.416995818109
0.6045133194067945, 2542.6227044230427
0.6126778387829971, 2526.8284130279753
0.6208437230069722, 2509.9826429088316
0.6290068775354021, 2495.2398302378415
0.6371754914549226, 2476.2911026705447
0.6453441053744431, 2457.342375103248
0.6535127192939637, 2438.393647535951
0.6616813332134842, 2419.444919968654
0.6698499471330048, 2400.4961924013573
0.6780185610525253, 2381.5474648340605
0.6861871749720458, 2362.5987372667637
0.6930004950532901, 2342.0764767023384
0.6998097205912163, 2324.7086523101425
0.7066189461291423, 2307.3408279179466
0.7134322662103866, 2286.8185673535213
0.7202414917483128, 2269.450742961326
0.7270548118295569, 2248.9284823969
0.7338681319108011, 2228.406221832475
0.7393179690671329, 2212.6193006153803
0.7447698534951237, 2195.255161312171
0.7502217379231145, 2177.8910220089615
0.7556715750794462, 2162.104100791867
0.761123459507437, 2144.7399614886576
0.7665753439354278, 2127.375822185448
0.7720292756350775, 2108.434464796124
0.7774791127914094, 2092.64754357903
0.7829330444910592, 2073.706186189705
0.7883869761907089, 2054.764828800381
0.7938388606186997, 2037.4006894971715
0.7992907450466905, 2020.036550193962
0.8047446767463403, 2001.0951928046377
0.8101986084459901, 1982.1538354153133
0.8156525401456399, 1963.212478025989
0.8211064718452897, 1944.2711206366646
0.8265624508165985, 1923.7525451612255
0.8320163825162484, 1904.811187771901
0.8374723614875572, 1884.2926122964618
0.842926293187207, 1865.3512549071374
0.8483802248868567, 1846.409897517813
0.8538341565865066, 1827.4685401284887
0.8592921828294745, 1805.3727465669347
0.8647461145291242, 1786.43138917761
0.8702020935004331, 1765.912813702171
0.875656025200083, 1746.9714563128466
0.8811120041713917, 1726.4528808374073
0.8865659358710416, 1707.511523448083
0.8920239621140094, 1685.4157298865289
0.8974778938136592, 1666.4743724972043
0.9029338727849683, 1645.9557970217652
0.9083878044846179, 1627.0144396324408
0.9138437834559268, 1606.4958641570015
0.9192977151555766, 1587.5545067676771
0.9247557413985443, 1565.458713206123
0.9302096730981941, 1546.5173558167987
0.935665652069503, 1525.9987803413594
0.9411195837691528, 1507.0574229520353
0.9465755627404617, 1486.5388474765957
0.9520294944401113, 1467.5974900872716
0.9574834261397613, 1448.6561326979472
0.9629373578394111, 1429.7147753086226
0.9683933368107198, 1409.1961998331835
0.9738472685103698, 1390.2548424438592
0.9793032474816785, 1369.7362669684198
0.9847571791813283, 1350.7949095790955
0.9902111108809784, 1331.853552189771
0.9970148770278138, 1318.6916426938822
0.9997554913553655, 1298.7061767584537
